…
# Are there too many children on the bus route? (we unfortunately dont have enough data for this)

# reason for getting late --(in the data) 
```

``` r
#Are the bus incidents a specific company problem? 
# Lets see the distribution of incidents across the various bus companies

bus_df %>% 
  select(Bus_Company_Name, Breakdown_or_Running_Late) %>% filter(Bus_Company_Name != '`') %>%
  group_by(Bus_Company_Name) %>% count()
```

    ## # A tibble: 116 x 2
    ## # Groups:   Bus_Company_Name [116]
    ##    Bus_Company_Name                  n
    ##    <chr>                         <int>
    ##  1 1967                              1
    ##  2 1992                            102
    ##  3 ACME BUS CORP. (B2321)         1602
    ##  4 ADDIES                           26
    ##  5 alina                             1
    ##  6 ALINA SERVICES CORP.            533
    ##  7 ALL AMERICAN SCHOOL BUS C      1269
    ##  8 ALL AMERICAN SCHOOL BUS CORP.   746
    ##  9 ALL COUNTY BUS LLC (B2321       255
    ## 10 ALL COUNTY BUS LLC (B2321)      114
    ## # ... with 106 more rows
…
myspread <- function(df, key, value) {
    # quote key
    keyq <- rlang::enquo(key)
    # break value vector into quotes
    valueq <- rlang::enquo(value)
    s <- rlang::quos(!!valueq)
    df %>% gather(variable, value, !!!s) %>%
        unite(temp, !!keyq, variable) %>%
        spread(temp, value)
}

x_15 %>% spread(Boro,Num_ss) %>% replace(is.na(.), 0)
```

    ## # A tibble: 57 x 13
    ## # Groups:   Clean_BusCo_name [57]
    ##    Clean_BusCo_name   School_Year Num_incidents Bronx Brooklyn Connecticut
    ##    <chr>              <chr>               <int> <dbl>    <dbl>       <dbl>
    ##  1 ACME BUS CORP. (B… 2015-2016             151    0.       0.          0.
    ##  2 alina              2015-2016               1    0.       0.          0.
    ##  3 ALINA SERVICES CO… 2015-2016             533    0.       0.          0.
    ##  4 ALL AMERICAN SCHO… 2015-2016            1978    0.      56.          0.
    ##  5 ALL COUNTY BUS LLC 2015-2016             369    0.       0.          0.
    ##  6 ALLIED TRANSIT CO… 2015-2016            4204    0.      44.          0.
    ##  7 ANOTHER RIDE INC.  2015-2016             614    2.       0.          0.
    ##  8 B & F SKILLED INC… 2015-2016            3278   13.      55.          0.
    ##  9 BOBBY`S BUS CO. I… 2015-2016            1917   86.       1.          0.
    ## 10 BORO TRANSIT, INC. 2015-2016           11016   83.     244.          0.
    ## # ... with 47 more rows, and 7 more variables: Manhattan <dbl>, `Nassau
    ## #   County` <dbl>, `New Jersey` <dbl>, Queens <dbl>, `Rockland
    ## #   County` <dbl>, `Staten Island` <dbl>, Westchester <dbl>
…
``` r
#2. Performance over years of a company. 
# counts of breakdowns
# reason for breakdown and relationship with number of students 

(breakdowns <- bus_df %>%
   select(Boro, School_Year, Reason , Breakdown_or_Running_Late) %>%
   filter(School_Year != '2019-2020')%>%
   count(School_Year, Boro,Breakdown_or_Running_Late, Reason) %>%
   rename(Num_of_Incidents = n)
   )
```

    ## # A tibble: 691 x 5
    ##    School_Year Boro         Breakdown_or_Runn… Reason     Num_of_Incidents
    ##    <chr>       <chr>        <chr>              <chr>                 <int>
    ##  1 2015-2016   All Boroughs Breakdown          Flat Tire                 1
    ##  2 2015-2016   All Boroughs Breakdown          Mechanica…                2
    ##  3 2015-2016   All Boroughs Breakdown          Other                     4
    ##  4 2015-2016   All Boroughs Breakdown          Won`t Sta…                2
    ##  5 2015-2016   All Boroughs Running Late       Flat Tire                 9
    ##  6 2015-2016   All Boroughs Running Late       Heavy Tra…              128
    ##  7 2015-2016   All Boroughs Running Late       Late retu…                3
    ##  8 2015-2016   All Boroughs Running Late       Mechanica…                1
    ##  9 2015-2016   All Boroughs Running Late       Other                     7
    ## 10 2015-2016   All Boroughs Running Late       Weather C…               21
    ## # ... with 681 more rows

``` r
(num_students <- bus_df %>% 
  select(Boro,Breakdown_or_Running_Late, Number_Of_Students_On_The_Bus) %>%
  count(Boro,Breakdown_or_Running_Late)) %>%
  dplyr::rename(Number_of_Students_Affected = n)
```

    ## # A tibble: 24 x 3
    ##    Boro         Breakdown_or_Running_Late Number_of_Students_Affected
    ##    <chr>        <chr>                                           <int>
    ##  1 All Boroughs Breakdown                                          20
    ##  2 All Boroughs Running Late                                      404
    ##  3 Bronx        Breakdown                                        9158
    ##  4 Bronx        Running Late                                    60862
    ##  5 Brooklyn     Breakdown                                        6757
    ##  6 Brooklyn     Running Late                                    54607
    ##  7 Connecticut  Breakdown                                          10
    ##  8 Connecticut  Running Late                                      197
    ##  9 Manhattan    Breakdown                                        3320
    ## 10 Manhattan    Running Late                                    63509
    ## # ... with 14 more rows

``` r
(students_affected <- breakdowns %>% 
                      filter(!is.na(Boro)) %>%
                      inner_join(num_students, by=c("Boro" = "Boro", "Breakdown_or_Running_Late" = "Breakdown_or_Running_Late")) %>%
                      rename(Students_Affected = n)
 )
```

    ## # A tibble: 626 x 6
    ##    School_Year Boro     Breakdown_or_Runni… Reason        Num_of_Incidents
    ##    <chr>       <chr>    <chr>               <chr>                    <int>
    ##  1 2015-2016   All Bor… Breakdown           Flat Tire                    1
    ##  2 2015-2016   All Bor… Breakdown           Mechanical P…                2
    ##  3 2015-2016   All Bor… Breakdown           Other                        4
    ##  4 2015-2016   All Bor… Breakdown           Won`t Start                  2
    ##  5 2015-2016   All Bor… Running Late        Flat Tire                    9
    ##  6 2015-2016   All Bor… Running Late        Heavy Traffic              128
    ##  7 2015-2016   All Bor… Running Late        Late return …                3
    ##  8 2015-2016   All Bor… Running Late        Mechanical P…                1
    ##  9 2015-2016   All Bor… Running Late        Other                        7
    ## 10 2015-2016   All Bor… Running Late        Weather Cond…               21
    ## # ... with 616 more rows, and 1 more variable: Students_Affected <int>
…
